%YAML 1.1
%TAG !u! tag:unity3d.com,2011:
--- !u!114 &11400000
MonoBehaviour:
  m_ObjectHideFlags: 0
  m_CorrespondingSourceObject: {fileID: 0}
  m_PrefabInstance: {fileID: 0}
  m_PrefabAsset: {fileID: 0}
  m_GameObject: {fileID: 0}
  m_Enabled: 1
  m_EditorHideFlags: 0
  m_Script: {fileID: 11500000, guid: 3d1dd65c84e7535488d11a270a4701de, type: 3}
  m_Name: BottomOffsetRightSpawn
  m_EditorClassIdentifier: 
  NoteActions:
  - ConfigEvent: {fileID: 0}
    ActionName: 
  - ConfigEvent: {fileID: 0}
    ActionName: 
  - ConfigEvent: {fileID: 0}
    ActionName: 
  - ConfigEvent: {fileID: 0}
    ActionName: 
  - ConfigEvent: {fileID: 0}
    ActionName: 
  - ConfigEvent: {fileID: 0}
    ActionName: 
  - ConfigEvent: {fileID: 0}
    ActionName: 
  - ConfigEvent: {fileID: 0}
    ActionName: 
  - ConfigEvent: {fileID: 3993494929524929667, guid: 214fd706de634be478ed827933b6eb57,
      type: 3}
    ActionName: Spawn
  - ConfigEvent: {fileID: 0}
    ActionName: 
  - ConfigEvent: {fileID: 4023258165777126600, guid: 8fd606a7f8d606c4a8721e10e88aa115,
      type: 3}
    ActionName: MoveToPoint
  - ConfigEvent: {fileID: 0}
    ActionName: 
  - ConfigEvent: {fileID: 6134670121449840705, guid: f5af188e4e545db47b862cec46fb7709,
      type: 3}
    ActionName: FireShot
  - ConfigEvent: {fileID: 0}
    ActionName: 
  - ConfigEvent: {fileID: 0}
    ActionName: 
  - ConfigEvent: {fileID: 0}
    ActionName: 
  - ConfigEvent: {fileID: 6134670121449840705, guid: f5af188e4e545db47b862cec46fb7709,
      type: 3}
    ActionName: FireShot
  - ConfigEvent: {fileID: 0}
    ActionName: 
  - ConfigEvent: {fileID: 0}
    ActionName: 
  - ConfigEvent: {fileID: 0}
    ActionName: 
  - ConfigEvent: {fileID: 0}
    ActionName: 
  - ConfigEvent: {fileID: 0}
    ActionName: 
  - ConfigEvent: {fileID: 6134670121449840705, guid: f5af188e4e545db47b862cec46fb7709,
      type: 3}
    ActionName: FireShot
  - ConfigEvent: {fileID: 0}
    ActionName: 
  - ConfigEvent: {fileID: 0}
    ActionName: 
  - ConfigEvent: {fileID: 0}
    ActionName: 
  - ConfigEvent: {fileID: 0}
    ActionName: 
  - ConfigEvent: {fileID: 0}
    ActionName: 
  - ConfigEvent: {fileID: 6134670121449840705, guid: f5af188e4e545db47b862cec46fb7709,
      type: 3}
    ActionName: FireShot
  - ConfigEvent: {fileID: 0}
    ActionName: 
  - ConfigEvent: {fileID: 0}
    ActionName: 
  - ConfigEvent: {fileID: 0}
    ActionName: 
  choiceIndices: 0000000000000000000000000000000000000000000000000000000000000000010000000000000001000000000000000100000000000000000000000000000001000000000000000000000000000000000000000000000001000000000000000000000000000000000000000000000001000000000000000000000000000000
