%YAML 1.1
%TAG !u! tag:unity3d.com,2011:
--- !u!114 &11400000
MonoBehaviour:
  m_ObjectHideFlags: 0
  m_CorrespondingSourceObject: {fileID: 0}
  m_PrefabInstance: {fileID: 0}
  m_PrefabAsset: {fileID: 0}
  m_GameObject: {fileID: 0}
  m_Enabled: 1
  m_EditorHideFlags: 0
  m_Script: {fileID: 11500000, guid: 3d1dd65c84e7535488d11a270a4701de, type: 3}
  m_Name: BottomLeft 4
  m_EditorClassIdentifier: 
  NoteActions:
  - ConfigEvent: {fileID: 7721102815681162636, guid: 13821e5ab9f173740804de22316917e4,
      type: 3}
    ActionName: FireShot
  - ConfigEvent: {fileID: 7721102815681162636, guid: 13821e5ab9f173740804de22316917e4,
      type: 3}
    ActionName: FireShot
  - ConfigEvent: {fileID: 7721102815681162636, guid: 13821e5ab9f173740804de22316917e4,
      type: 3}
    ActionName: FireShot
  - ConfigEvent: {fileID: 7721102815681162636, guid: 13821e5ab9f173740804de22316917e4,
      type: 3}
    ActionName: FireShot
  - ConfigEvent: {fileID: 7721102815681162636, guid: 13821e5ab9f173740804de22316917e4,
      type: 3}
    ActionName: FireShot
  - ConfigEvent: {fileID: 7721102815681162636, guid: 13821e5ab9f173740804de22316917e4,
      type: 3}
    ActionName: FireShot
  - ConfigEvent: {fileID: 7721102815681162636, guid: 13821e5ab9f173740804de22316917e4,
      type: 3}
    ActionName: FireShot
  - ConfigEvent: {fileID: 7721102815681162636, guid: 13821e5ab9f173740804de22316917e4,
      type: 3}
    ActionName: FireShot
  - ConfigEvent: {fileID: 7721102815681162636, guid: 13821e5ab9f173740804de22316917e4,
      type: 3}
    ActionName: FireShot
  - ConfigEvent: {fileID: 7721102815681162636, guid: 13821e5ab9f173740804de22316917e4,
      type: 3}
    ActionName: FireShot
  - ConfigEvent: {fileID: 7721102815681162636, guid: 13821e5ab9f173740804de22316917e4,
      type: 3}
    ActionName: FireShot
  - ConfigEvent: {fileID: 7721102815681162636, guid: 13821e5ab9f173740804de22316917e4,
      type: 3}
    ActionName: FireShot
  - ConfigEvent: {fileID: 7721102815681162636, guid: 13821e5ab9f173740804de22316917e4,
      type: 3}
    ActionName: FireShot
  - ConfigEvent: {fileID: 7721102815681162636, guid: 13821e5ab9f173740804de22316917e4,
      type: 3}
    ActionName: FireShot
  - ConfigEvent: {fileID: 7721102815681162636, guid: 13821e5ab9f173740804de22316917e4,
      type: 3}
    ActionName: FireShot
  - ConfigEvent: {fileID: 7721102815681162636, guid: 13821e5ab9f173740804de22316917e4,
      type: 3}
    ActionName: FireShot
  - ConfigEvent: {fileID: 7721102815681162636, guid: 13821e5ab9f173740804de22316917e4,
      type: 3}
    ActionName: FireShot
  - ConfigEvent: {fileID: 7721102815681162636, guid: 13821e5ab9f173740804de22316917e4,
      type: 3}
    ActionName: FireShot
  - ConfigEvent: {fileID: 7721102815681162636, guid: 13821e5ab9f173740804de22316917e4,
      type: 3}
    ActionName: FireShot
  - ConfigEvent: {fileID: 7721102815681162636, guid: 13821e5ab9f173740804de22316917e4,
      type: 3}
    ActionName: FireShot
  - ConfigEvent: {fileID: 7721102815681162636, guid: 13821e5ab9f173740804de22316917e4,
      type: 3}
    ActionName: FireShot
  - ConfigEvent: {fileID: 7721102815681162636, guid: 13821e5ab9f173740804de22316917e4,
      type: 3}
    ActionName: FireShot
  - ConfigEvent: {fileID: 7721102815681162636, guid: 13821e5ab9f173740804de22316917e4,
      type: 3}
    ActionName: FireShot
  - ConfigEvent: {fileID: 7721102815681162636, guid: 13821e5ab9f173740804de22316917e4,
      type: 3}
    ActionName: FireShot
  - ConfigEvent: {fileID: 7721102815681162636, guid: 13821e5ab9f173740804de22316917e4,
      type: 3}
    ActionName: FireShot
  - ConfigEvent: {fileID: 7721102815681162636, guid: 13821e5ab9f173740804de22316917e4,
      type: 3}
    ActionName: FireShot
  - ConfigEvent: {fileID: 7721102815681162636, guid: 13821e5ab9f173740804de22316917e4,
      type: 3}
    ActionName: FireShot
  - ConfigEvent: {fileID: 7721102815681162636, guid: 13821e5ab9f173740804de22316917e4,
      type: 3}
    ActionName: FireShot
  - ConfigEvent: {fileID: 7721102815681162636, guid: 13821e5ab9f173740804de22316917e4,
      type: 3}
    ActionName: FireShot
  - ConfigEvent: {fileID: 7721102815681162636, guid: 13821e5ab9f173740804de22316917e4,
      type: 3}
    ActionName: FireShot
  - ConfigEvent: {fileID: 7721102815681162636, guid: 13821e5ab9f173740804de22316917e4,
      type: 3}
    ActionName: FireShot
  - ConfigEvent: {fileID: 7721102815681162636, guid: 13821e5ab9f173740804de22316917e4,
      type: 3}
    ActionName: FireShot
  choiceIndices: 0100000001000000010000000100000001000000010000000100000001000000010000000100000001000000010000000100000001000000010000000100000001000000010000000100000001000000010000000100000001000000010000000100000001000000010000000100000001000000010000000100000001000000
