%YAML 1.1
%TAG !u! tag:unity3d.com,2011:
--- !u!114 &11400000
MonoBehaviour:
  m_ObjectHideFlags: 0
  m_CorrespondingSourceObject: {fileID: 0}
  m_PrefabInstance: {fileID: 0}
  m_PrefabAsset: {fileID: 0}
  m_GameObject: {fileID: 0}
  m_Enabled: 1
  m_EditorHideFlags: 0
  m_Script: {fileID: 11500000, guid: 236bf94ffdcc7064a995775e6f45bc5e, type: 3}
  m_Name: Enemy3
  m_EditorClassIdentifier: 
  StartMeasure: 18
  Measures:
  - {fileID: 11400000, guid: e87ac9c8ac4d2da458e933021338f453, type: 2}
  - {fileID: 11400000, guid: 17c863ad3766c6d4ca10f4cba286fa3d, type: 2}
