%YAML 1.1
%TAG !u! tag:unity3d.com,2011:
--- !u!114 &11400000
MonoBehaviour:
  m_ObjectHideFlags: 0
  m_CorrespondingSourceObject: {fileID: 0}
  m_PrefabInstance: {fileID: 0}
  m_PrefabAsset: {fileID: 0}
  m_GameObject: {fileID: 0}
  m_Enabled: 1
  m_EditorHideFlags: 0
  m_Script: {fileID: 11500000, guid: 3d1dd65c84e7535488d11a270a4701de, type: 3}
  m_Name: Bassline Guitar
  m_EditorClassIdentifier: 
  NoteActions:
  - ConfigEvent: {fileID: 0}
    ActionName: FireShot
  - ConfigEvent: {fileID: 0}
    ActionName: 
  - ConfigEvent: {fileID: 0}
    ActionName: 
  - ConfigEvent: {fileID: 0}
    ActionName: 
  - ConfigEvent: {fileID: 7721102815681162636, guid: 6aacf50bfcb99ba43a32ca38f7a365ac,
      type: 3}
    ActionName: FireShot
  - ConfigEvent: {fileID: 0}
    ActionName: 
  - ConfigEvent: {fileID: 0}
    ActionName: 
  - ConfigEvent: {fileID: 0}
    ActionName: 
  - ConfigEvent: {fileID: 0}
    ActionName: FireShot
  - ConfigEvent: {fileID: 0}
    ActionName: 
  - ConfigEvent: {fileID: 0}
    ActionName: 
  - ConfigEvent: {fileID: 0}
    ActionName: 
  - ConfigEvent: {fileID: 7721102815681162636, guid: 6aacf50bfcb99ba43a32ca38f7a365ac,
      type: 3}
    ActionName: FireShot
  - ConfigEvent: {fileID: 0}
    ActionName: 
  - ConfigEvent: {fileID: 0}
    ActionName: 
  - ConfigEvent: {fileID: 0}
    ActionName: 
  - ConfigEvent: {fileID: 0}
    ActionName: FireShot
  - ConfigEvent: {fileID: 0}
    ActionName: 
  - ConfigEvent: {fileID: 0}
    ActionName: 
  - ConfigEvent: {fileID: 0}
    ActionName: 
  - ConfigEvent: {fileID: 7721102815681162636, guid: 6aacf50bfcb99ba43a32ca38f7a365ac,
      type: 3}
    ActionName: FireShot
  - ConfigEvent: {fileID: 0}
    ActionName: 
  - ConfigEvent: {fileID: 0}
    ActionName: 
  - ConfigEvent: {fileID: 0}
    ActionName: 
  - ConfigEvent: {fileID: 0}
    ActionName: FireShot
  - ConfigEvent: {fileID: 0}
    ActionName: 
  - ConfigEvent: {fileID: 0}
    ActionName: 
  - ConfigEvent: {fileID: 0}
    ActionName: 
  - ConfigEvent: {fileID: 7721102815681162636, guid: 6aacf50bfcb99ba43a32ca38f7a365ac,
      type: 3}
    ActionName: FireShot
  - ConfigEvent: {fileID: 0}
    ActionName: 
  - ConfigEvent: {fileID: 0}
    ActionName: 
  - ConfigEvent: {fileID: 0}
    ActionName: 
  choiceIndices: 0100000000000000000000000000000001000000000000000000000000000000010000000000000000000000000000000100000000000000000000000000000001000000000000000000000000000000010000000000000000000000000000000100000000000000000000000000000001000000000000000000000000000000
