%YAML 1.1
%TAG !u! tag:unity3d.com,2011:
--- !u!114 &11400000
MonoBehaviour:
  m_ObjectHideFlags: 0
  m_CorrespondingSourceObject: {fileID: 0}
  m_PrefabInstance: {fileID: 0}
  m_PrefabAsset: {fileID: 0}
  m_GameObject: {fileID: 0}
  m_Enabled: 1
  m_EditorHideFlags: 0
  m_Script: {fileID: 11500000, guid: 236bf94ffdcc7064a995775e6f45bc5e, type: 3}
  m_Name: TestConfiguration
  m_EditorClassIdentifier: 
  StartMeasure: 0
  Measures:
  - {fileID: 11400000, guid: 525275c31604c2d44aeb90c29fd1cec4, type: 2}
  - {fileID: 11400000, guid: f4a677c820141f24e99d9fdeb10aba88, type: 2}
  - {fileID: 11400000, guid: f4a677c820141f24e99d9fdeb10aba88, type: 2}
  - {fileID: 11400000, guid: f4a677c820141f24e99d9fdeb10aba88, type: 2}
  - {fileID: 11400000, guid: f4a677c820141f24e99d9fdeb10aba88, type: 2}
  - {fileID: 11400000, guid: f4a677c820141f24e99d9fdeb10aba88, type: 2}
  - {fileID: 11400000, guid: f4a677c820141f24e99d9fdeb10aba88, type: 2}
  - {fileID: 11400000, guid: f4a677c820141f24e99d9fdeb10aba88, type: 2}
